…
**tibble与list的转型** 也是非常平滑的，一个转型函数就够。

```r
df <- as.tibble(list(x = 1:500, y = runif(500), z = 500:1)) # 把list转型为tibble
df
```

```
## # A tibble: 500 x 3
##        x         y     z
##    <int>     <dbl> <int>
##  1     1 0.8495452   500
##  2     2 0.7618803   499
##  3     3 0.2777375   498
##  4     4 0.2526940   497
##  5     5 0.5113623   496
##  6     6 0.4388692   495
##  7     7 0.9790384   494
##  8     8 0.9115946   493
##  9     9 0.2533256   492
## 10    10 0.8666731   491
## # ... with 490 more rows
```
…
```r
print(tb,n = 3, width = 30)  # 打印前3行，宽度30
```

```
## # A tibble: 5 x 5
##       a     b     c     d
##   <int> <dbl> <lgl> <chr>
## 1     1     2    NA     a
## 2     2     4    NA     a
## 3     3     6    NA     a
## # ... with 2 more rows, and 1
## #   more variables: e <chr>
```
…
